{
  "images" : [
    {
      "idiom" : "iphone",
      "scale" : "1x",
      "filename" : "BgCircle2.png"
    },
    {
      "idiom" : "iphone",
      "scale" : "2x",
      "filename" : "BgCircle2-1.png"
    },
    {
      "idiom" : "iphone",
      "filename" : "BgCircle2-2.png",
      "subtype" : "retina4",
      "scale" : "2x"
    },
    {
      "idiom" : "iphone",
      "scale" : "3x",
      "filename" : "BgCircle2@3x.png"
    }
  ],
  "info" : {
    "version" : 1,
    "author" : "xcode"
  }
}